{
  "project_info": {
    "project_number": "186491405341",
    "project_id": "chat-training-9d868",
    "storage_bucket": "chat-training-9d868.appspot.com"
  },
  "client": [
    {
      "client_info": {
        "mobilesdk_app_id": "1:186491405341:android:34c14d82912639b399b2f4",
        "android_client_info": {
          "package_name": "com.assignment4"
        }
      },
      "oauth_client": [
        {
          "client_id": "186491405341-n9t73i7ksvii33ic6gm1vjvkuf331th8.apps.googleusercontent.com",
          "client_type": 3
        }
      ],
      "api_key": [
        {
          "current_key": "AIzaSyB-Auv3-xlvwFi-zAt5TWWMG5uVWXFT6LY"
        }
      ],
      "services": {
        "appinvite_service": {
          "other_platform_oauth_client": [
            {
              "client_id": "186491405341-n9t73i7ksvii33ic6gm1vjvkuf331th8.apps.googleusercontent.com",
              "client_type": 3
            }
          ]
        }
      }
    }
  ],
  "configuration_version": "1"
}